module gitlab.com/saintmaur/lib

go 1.19

require (
	github.com/gorilla/websocket v1.5.0
	github.com/pkg/profile v1.7.0
	github.com/prometheus/client_golang v1.14.0
	github.com/rabbitmq/amqp091-go v1.5.0
	github.com/spf13/viper v1.14.0
	go.uber.org/zap v1.21.0
)

require (
	github.com/beorn7/perks v1.0.1 // indirect
	github.com/cespare/xxhash/v2 v2.1.2 // indirect
	github.com/felixge/fgprof v0.9.3 // indirect
	github.com/fsnotify/fsnotify v1.6.0 // indirect
	github.com/golang/protobuf v1.5.2 // indirect
	github.com/google/pprof v0.0.0-20211214055906-6f57359322fd // indirect
	github.com/hashicorp/hcl v1.0.0 // indirect
	github.com/magiconair/properties v1.8.6 // indirect
	github.com/matttproud/golang_protobuf_extensions v1.0.1 // indirect
	github.com/mitchellh/mapstructure v1.5.0 // indirect
	github.com/pelletier/go-toml v1.9.5 // indirect
	github.com/pelletier/go-toml/v2 v2.0.5 // indirect
	github.com/prometheus/client_model v0.3.0 // indirect
	github.com/prometheus/common v0.37.0 // indirect
	github.com/prometheus/procfs v0.8.0 // indirect
	github.com/spf13/afero v1.9.2 // indirect
	github.com/spf13/cast v1.5.0 // indirect
	github.com/spf13/jwalterweatherman v1.1.0 // indirect
	github.com/spf13/pflag v1.0.5 // indirect
	github.com/subosito/gotenv v1.4.1 // indirect
	go.uber.org/atomic v1.9.0 // indirect
	go.uber.org/multierr v1.8.0 // indirect
	golang.org/x/sys v0.4.0 // indirect
	golang.org/x/text v0.6.0 // indirect
	google.golang.org/protobuf v1.28.1 // indirect
	gopkg.in/ini.v1 v1.67.0 // indirect
	gopkg.in/yaml.v2 v2.4.0 // indirect
	gopkg.in/yaml.v3 v3.0.1 // indirect
)
